[2020-04-19T12:42:38.217589] - ERROR:
Traceback (most recent call last):
  File "test_data/test_cases/dashboard_test/dashboard_test.py", line 961, in test_C6846
    assert fd_checkbox == "Face Match Identifier", "Face Match checkbox not display"
AssertionError: chrome 79.0.3945.88: Face Match checkbox not display

[2020-04-19T12:44:12.371374] - ERROR:
Traceback (most recent call last):
  File "test_data/test_cases/dashboard_test/dashboard_test.py", line 961, in test_C6846
    assert fd_checkbox == "Face Match Identifier", "Face Match checkbox not display"
AssertionError: chrome 79.0.3945.88: Face Match checkbox not display

[2020-04-19T12:45:06.350121] - ERROR:
Traceback (most recent call last):
  File "test_data/test_cases/dashboard_test/dashboard_test.py", line 961, in test_C6846
    assert fd_checkbox == "Face Match Identifier", "Face Match checkbox not display"
AssertionError: chrome 79.0.3945.88: Face Match checkbox not display

[2020-04-19T12:45:39.901831] - ERROR:
Traceback (most recent call last):
  File "test_data/test_cases/dashboard_test/dashboard_test.py", line 961, in test_C6846
    assert fd_checkbox == "Face Match", "Face Match checkbox not display"
AssertionError: chrome 79.0.3945.88: Face Match checkbox not display

[2020-04-19T12:47:05.382205] - SUCCESS - chrome 79.0.3945.88: Success

